{
  "tracks" : {
    "href" : "https://api.spotify.com/v1/search?query=Hello&type=track&locale=ar&offset=0&limit=10",
    "items" : [ {
        "album" : {
          "album_type" : "album",
          "artists" : [ {
            "external_urls" : {
              "spotify" : "https://open.spotify.com/artist/4dpARuHxo51G3z768sgnrY"
            },
            "href" : "https://api.spotify.com/v1/artists/4dpARuHxo51G3z768sgnrY",
            "id" : "4dpARuHxo51G3z768sgnrY",
            "name" : "Adele",
            "type" : "artist",
            "uri" : "spotify:artist:4dpARuHxo51G3z768sgnrY"
          } ],
          "available_markets" : [ "AD", "AE", "AG", "AL", "AM", "AO", "AT", "AU", "AZ", "BA", "BB", "BD", "BE", "BF", "BG", "BH", "BI", "BJ", "BN", "BS", "BT", "BW", "BY", "CA", "CD", "CG", "CH", "CI", "CM", "CV", "CW", "CY", "CZ", "DE", "DJ", "DK", "DM", "DZ", "EE", "EG", "ES", "FI", "FJ", "FM", "FR", "GA", "GB", "GD", "GE", "GH", "GM", "GN", "GQ", "GR", "GW", "HK", "HR", "HT", "HU", "ID", "IE", "IL", "IN", "IQ", "IS", "IT", "JM", "JO", "JP", "KE", "KG", "KH", "KI", "KM", "KN", "KR", "KW", "KZ", "LA", "LB", "LC", "LI", "LK", "LR", "LS", "LT", "LU", "LV", "LY", "MA", "MC", "MD", "ME", "MG", "MH", "MK", "ML", "MN", "MO", "MR", "MT", "MU", "MV", "MW", "MY", "MZ", "NA", "NE", "NG", "NL", "NO", "NP", "NR", "NZ", "OM", "PG", "PH", "PK", "PL", "PS", "PT", "PW", "QA", "RO", "RS", "RW", "SA", "SB", "SC", "SE", "SG", "SI", "SK", "SL", "SM", "SN", "ST", "SZ", "TD", "TG", "TH", "TJ", "TL", "TN", "TO", "TR", "TT", "TV", "TW", "TZ", "UA", "UG", "UZ", "VC", "VN", "VU", "WS", "XK", "ZA", "ZM", "ZW" ],
          "external_urls" : {
            "spotify" : "https://open.spotify.com/album/6TVfiWmo8KtflUAmkK9gGF"
          },
          "href" : "https://api.spotify.com/v1/albums/6TVfiWmo8KtflUAmkK9gGF",
          "id" : "6TVfiWmo8KtflUAmkK9gGF",
          "images" : [ {
            "height" : 640,
            "url" : "https://i.scdn.co/image/ab67616d0000b273f1ea3305aa003425dda05882",
            "width" : 640
          }, {
            "height" : 300,
            "url" : "https://i.scdn.co/image/ab67616d00001e02f1ea3305aa003425dda05882",
            "width" : 300
          }, {
            "height" : 64,
            "url" : "https://i.scdn.co/image/ab67616d00004851f1ea3305aa003425dda05882",
            "width" : 64
          } ],
          "name" : "25",
          "release_date" : "2015-11-20",
          "release_date_precision" : "day",
          "total_tracks" : 11,
          "type" : "album",
          "uri" : "spotify:album:6TVfiWmo8KtflUAmkK9gGF"
        },
        "artists" : [ {
          "external_urls" : {
            "spotify" : "https://open.spotify.com/artist/4dpARuHxo51G3z768sgnrY"
          },
          "href" : "https://api.spotify.com/v1/artists/4dpARuHxo51G3z768sgnrY",
          "id" : "4dpARuHxo51G3z768sgnrY",
          "name" : "Adele",
          "type" : "artist",
          "uri" : "spotify:artist:4dpARuHxo51G3z768sgnrY"
        } ],
        "available_markets" : [ "AD", "AE", "AG", "AL", "AM", "AO", "AT", "AU", "AZ", "BA", "BB", "BD", "BE", "BF", "BG", "BH", "BI", "BJ", "BN", "BS", "BT", "BW", "BY", "CA", "CD", "CG", "CH", "CI", "CM", "CV", "CW", "CY", "CZ", "DE", "DJ", "DK", "DM", "DZ", "EE", "EG", "ES", "FI", "FJ", "FM", "FR", "GA", "GB", "GD", "GE", "GH", "GM", "GN", "GQ", "GR", "GW", "HK", "HR", "HT", "HU", "ID", "IE", "IL", "IN", "IQ", "IS", "IT", "JM", "JO", "JP", "KE", "KG", "KH", "KI", "KM", "KN", "KR", "KW", "KZ", "LA", "LB", "LC", "LI", "LK", "LR", "LS", "LT", "LU", "LV", "LY", "MA", "MC", "MD", "ME", "MG", "MH", "MK", "ML", "MN", "MO", "MR", "MT", "MU", "MV", "MW", "MY", "MZ", "NA", "NE", "NG", "NL", "NO", "NP", "NR", "NZ", "OM", "PG", "PH", "PK", "PL", "PS", "PT", "PW", "QA", "RO", "RS", "RW", "SA", "SB", "SC", "SE", "SG", "SI", "SK", "SL", "SM", "SN", "ST", "SZ", "TD", "TG", "TH", "TJ", "TL", "TN", "TO", "TR", "TT", "TV", "TW", "TZ", "UA", "UG", "UZ", "VC", "VN", "VU", "WS", "XK", "ZA", "ZM", "ZW" ],
        "disc_number" : 1,
        "duration_ms" : 295502,
        "explicit" : false,
        "external_ids" : {
          "isrc" : "GBBKS1500214"
        },
        "external_urls" : {
          "spotify" : "https://open.spotify.com/track/1Yk0cQdMLx5RzzFTYwmuld"
        },
        "href" : "https://api.spotify.com/v1/tracks/1Yk0cQdMLx5RzzFTYwmuld",
        "id" : "1Yk0cQdMLx5RzzFTYwmuld",
        "is_local" : false,
        "name" : "Hello",
        "popularity" : 73,
        "preview_url" : "https://p.scdn.co/mp3-preview/c9e07a3179cae95f703580aa53325ec73781ddff?cid=92895b862a2340cc85e690626caf99dd",
        "track_number" : 1,
        "type" : "track",
        "uri" : "spotify:track:1Yk0cQdMLx5RzzFTYwmuld"
      }
      ],
    "limit" : 10,
    "next" : "https://api.spotify.com/v1/search?query=Hello&type=track&locale=ar&offset=10&limit=10",
    "offset" : 0,
    "previous" : null,
    "total" : 11170
  }
}
