{
  "tracks" : {
    "href" : "https://api.spotify.com/v1/search?query=Adele&type=track&locale=en-GB%2Cen-US%3Bq%3D0.9%2Cen%3Bq%3D0.8&offset=0&limit=10",
    "items" : [ {
      "album" : {
        "album_type" : "single",
        "artists" : [ {
          "external_urls" : {
            "spotify" : "https://open.spotify.com/artist/4dpARuHxo51G3z768sgnrY"
          },
          "href" : "https://api.spotify.com/v1/artists/4dpARuHxo51G3z768sgnrY",
          "id" : 1,
          "name" : "Adele",
          "type" : "artist",
          "uri" : "spotify:artist:4dpARuHxo51G3z768sgnrY"
        } ],
        "available_markets" : [ "AD", "AE", "AG", "AL", "AM", "AO", "AR", "AT", "AU", "AZ", "BA", "BB", "BD", "BE", "BF", "BG", "BH", "BI", "BJ", "BN", "BO", "BR", "BS", "BT", "BW", "BY", "BZ", "CA", "CD", "CG", "CH", "CI", "CL", "CM", "CO", "CR", "CV", "CW", "CY", "CZ", "DE", "DJ", "DK", "DM", "DO", "DZ", "EC", "EE", "EG", "ES", "FI", "FJ", "FM", "FR", "GA", "GB", "GD", "GE", "GH", "GM", "GN", "GQ", "GR", "GT", "GW", "GY", "HK", "HN", "HR", "HT", "HU", "ID", "IE", "IL", "IN", "IQ", "IS", "IT", "JM", "JO", "JP", "KE", "KG", "KH", "KI", "KM", "KN", "KR", "KW", "KZ", "LA", "LB", "LC", "LI", "LK", "LR", "LS", "LT", "LU", "LV", "LY", "MA", "MC", "MD", "ME", "MG", "MH", "MK", "ML", "MN", "MO", "MR", "MT", "MU", "MV", "MW", "MX", "MY", "MZ", "NA", "NE", "NG", "NI", "NL", "NO", "NP", "NR", "NZ", "OM", "PA", "PE", "PG", "PH", "PK", "PL", "PS", "PT", "PW", "PY", "QA", "RO", "RS", "RW", "SA", "SB", "SC", "SG", "SI", "SK", "SL", "SM", "SN", "SR", "ST", "SV", "SZ", "TD", "TG", "TH", "TJ", "TL", "TN", "TO", "TR", "TT", "TV", "TW", "TZ", "UA", "UG", "US", "UY", "UZ", "VC", "VE", "VN", "VU", "WS", "XK", "ZA", "ZM", "ZW" ],
        "external_urls" : {
          "spotify" : "https://open.spotify.com/album/224jZ4sUX7OhAuMwaxp86S"
        },
        "href" : "https://api.spotify.com/v1/albums/224jZ4sUX7OhAuMwaxp86S",
        "id" : "224jZ4sUX7OhAuMwaxp86S",
        "images" : [ {
          "height" : 640,
          "url" : "https://i.scdn.co/image/ab67616d0000b27350dba34377a595e35f81b0e4",
          "width" : 640
        }, {
          "height" : 300,
          "url" : "https://i.scdn.co/image/ab67616d00001e0250dba34377a595e35f81b0e4",
          "width" : 300
        }, {
          "height" : 64,
          "url" : "https://i.scdn.co/image/ab67616d0000485150dba34377a595e35f81b0e4",
          "width" : 64
        } ],
        "name" : "Easy On Me",
        "release_date" : "2021-10-14",
        "release_date_precision" : "day",
        "total_tracks" : 1,
        "type" : "album",
        "uri" : "spotify:album:224jZ4sUX7OhAuMwaxp86S"
      },
      "artists" : [ {
        "external_urls" : {
          "spotify" : "https://open.spotify.com/artist/4dpARuHxo51G3z768sgnrY"
        },
        "href" : "https://api.spotify.com/v1/artists/4dpARuHxo51G3z768sgnrY",
        "id" : "4dpARuHxo51G3z768sgnrY",
        "name" : "Adele",
        "type" : "artist",
        "uri" : "spotify:artist:4dpARuHxo51G3z768sgnrY"
      } ],
      "available_markets" : [ "AD", "AE", "AG", "AL", "AM", "AO", "AR", "AT", "AU", "AZ", "BA", "BB", "BD", "BE", "BF", "BG", "BH", "BI", "BJ", "BN", "BO", "BR", "BS", "BT", "BW", "BY", "BZ", "CA", "CD", "CG", "CH", "CI", "CL", "CM", "CO", "CR", "CV", "CW", "CY", "CZ", "DE", "DJ", "DK", "DM", "DO", "DZ", "EC", "EE", "EG", "ES", "FI", "FJ", "FM", "FR", "GA", "GB", "GD", "GE", "GH", "GM", "GN", "GQ", "GR", "GT", "GW", "GY", "HK", "HN", "HR", "HT", "HU", "ID", "IE", "IL", "IN", "IQ", "IS", "IT", "JM", "JO", "JP", "KE", "KG", "KH", "KI", "KM", "KN", "KR", "KW", "KZ", "LA", "LB", "LC", "LI", "LK", "LR", "LS", "LT", "LU", "LV", "LY", "MA", "MC", "MD", "ME", "MG", "MH", "MK", "ML", "MN", "MO", "MR", "MT", "MU", "MV", "MW", "MX", "MY", "MZ", "NA", "NE", "NG", "NI", "NL", "NO", "NP", "NR", "NZ", "OM", "PA", "PE", "PG", "PH", "PK", "PL", "PS", "PT", "PW", "PY", "QA", "RO", "RS", "RW", "SA", "SB", "SC", "SG", "SI", "SK", "SL", "SM", "SN", "SR", "ST", "SV", "SZ", "TD", "TG", "TH", "TJ", "TL", "TN", "TO", "TR", "TT", "TV", "TW", "TZ", "UA", "UG", "US", "UY", "UZ", "VC", "VE", "VN", "VU", "WS", "XK", "ZA", "ZM", "ZW" ],
      "disc_number" : 1,
      "duration_ms" : 224694,
      "explicit" : false,
      "external_ids" : {
        "isrc" : "USSM12105970"
      },
      "external_urls" : {
        "spotify" : "https://open.spotify.com/track/0gplL1WMoJ6iYaPgMCL0gX"
      },
      "href" : "https://api.spotify.com/v1/tracks/0gplL1WMoJ6iYaPgMCL0gX",
      "id" : "0gplL1WMoJ6iYaPgMCL0gX",
      "is_local" : false,
      "name" : "Easy On Me",
      "popularity" : 84,
      "preview_url" : "https://p.scdn.co/mp3-preview/3ca514309c910bb73a9e3ef8092306900af06fa6?cid=92895b862a2340cc85e690626caf99dd",
      "track_number" : 1,
      "type" : "track",
      "uri" : "spotify:track:0gplL1WMoJ6iYaPgMCL0gX"
    } ],
    "limit" : 10,
    "next" : "https://api.spotify.com/v1/search?query=Adele&type=track&locale=en-GB%2Cen-US%3Bq%3D0.9%2Cen%3Bq%3D0.8&offset=10&limit=10",
    "offset" : 0,
    "previous" : null,
    "total" : 11050
  }
}
